# 3ds Max Wavefront OBJ Exporter v0.97b - (c)2007 guruware
# File Created: 27.05.2017 23:04:50

newmtl GrassMaterial
	Ns 10.0000
	Ni 1.5000
	d 1.0000
	Tr 0.0000
	Tf 1.0000 1.0000 1.0000 
	illum 2
	Ka 0.0745 0.1137 0.0431
	Kd 0.0745 0.1137 0.0431
	Ks 0.1710 0.1710 0.1710
	Ke 0.0000 0.0000 0.0000
	map_Ka Seaweed_Smoke.tga
	map_Kd Seaweed_Smoke.tga

newmtl Rock
	Ns 10.0000
	Ni 1.5000
	d 1.0000
	Tr 0.0000
	Tf 1.0000 1.0000 1.0000 
	illum 2
	Ka 0.1412 0.1098 0.0627
	Kd 0.1412 0.1098 0.0627
	Ks 0.0000 0.0000 0.0000
	Ke 0.0000 0.0000 0.0000
	map_Ka Map__2_Stucco.tga
	map_Kd Map__2_Stucco.tga
