newmtl blinn2SG
illum 4
Kd 0.01 0.00 0.02
Ka 0.00 0.00 0.00
Tf 1.00 1.00 1.00
Ni 1.00
Ks 0.33 0.08 0.38
newmtl blinn3SG
illum 4
Kd 0.00 0.00 0.04
Ka 0.00 0.00 0.00
Tf 1.00 1.00 1.00
Ni 1.00
Ks 0.02 0.31 0.24
newmtl blinn4SG
illum 4
Kd 0.09 0.04 0.03
Ka 0.00 0.00 0.00
Tf 1.00 1.00 1.00
Ni 1.00
Ks 1.00 0.67 0.63
newmtl blinn5SG
illum 4
Kd 0.47 0.33 0.38
Ka 0.00 0.00 0.00
Tf 1.00 1.00 1.00
Ni 1.00
Ks 0.46 0.40 0.25
newmtl blinn6SG
illum 4
Kd 0.12 0.04 0.13
Ka 0.00 0.00 0.00
Tf 1.00 1.00 1.00
Ni 1.00
Ks 0.03 0.20 0.08
newmtl blinn7SG
illum 4
Kd 0.11 0.36 0.29
Ka 0.00 0.00 0.00
Tf 1.00 1.00 1.00
Ni 1.00
Ks 1.00 0.22 0.86
newmtl blinn11SG
illum 4
Kd 0.00 0.19 0.19
Ka 0.00 0.00 0.00
Tf 1.00 1.00 1.00
Ni 1.00
Ks 0.06 0.27 0.39
newmtl lambert3SG
illum 4
Kd 0.28 0.50 0.50
Ka 0.00 0.00 0.00
Tf 1.00 1.00 1.00
Ni 1.00
newmtl lambert4SG
illum 4
Kd 1.00 1.00 1.00
Ka 0.00 0.00 0.00
Tf 1.00 1.00 1.00
Ni 1.00
newmtl lambert5SG
illum 4
Kd 0.00 0.00 0.00
Ka 0.00 0.00 0.00
Tf 1.00 1.00 1.00
Ni 1.00
newmtl lambert6SG
illum 4
Kd 0.67 0.43 0.50
Ka 0.00 0.00 0.00
Tf 1.00 1.00 1.00
Ni 1.00
